%YAML 1.1
%TAG !u! tag:unity3d.com,2011:
--- !u!114 &11400000
MonoBehaviour:
  m_ObjectHideFlags: 0
  m_CorrespondingSourceObject: {fileID: 0}
  m_PrefabInstance: {fileID: 0}
  m_PrefabAsset: {fileID: 0}
  m_GameObject: {fileID: 0}
  m_Enabled: 1
  m_EditorHideFlags: 0
  m_Script: {fileID: 11500000, guid: 2ec0f6ca7dbc79341860aae894b27497, type: 3}
  m_Name: LocalData
  m_EditorClassIdentifier: 
  localDatas:
  - key: 4
    value: butter cup
    exampleValue: 
  - key: 3
    value: hello world
    exampleValue: 
