Location,Key,English,Danish,Bengali,Afrikaans,Croatian
"Assets/Example/Prefab/Canvas 2.prefab
Assets/Example/Scenes/SampleScene.unity
/Canvas 2/Text
","1","so let test it","","","",""
"Assets/Example/Prefab/Canvas 2.prefab
Assets/Example/Prefab/Canvas.prefab
Assets/Example/Scenes/SampleScene.unity
/Canvas 2/Text
Assets/Example/Scenes/SampleScene.unity
/Canvas/Text
","2","If I can't help falling in love with you?","","","",""
"Assets/Example/Prefab/Canvas 2.prefab
Assets/Example/Prefab/Canvas.prefab
Assets/Example/Scenes/SampleScene.unity
/Canvas 2/Text (3)
Assets/Example/Scenes/SampleScene.unity
/Canvas/Text (3)
","3","Some things are meant to be Take my hand, take my whole life too For I can't help falling in love with you For I can't help falling in love with you","","","",""
"Assets/Example/Prefab/Canvas 2.prefab
Assets/Example/Prefab/Canvas.prefab
Assets/Example/Scenes/SampleScene.unity
/Canvas 2/Text (TMP)
Assets/Example/Scenes/SampleScene.unity
/Canvas/Text (2)
","4","walter white is drug dealer","","","",""
"Assets/Example/Prefab/Canvas.prefab
Assets/Example/Scenes/SampleScene.unity
/Canvas/Text
","5","so let test it again","","","",""
"Assets/Example/Prefab/Canvas.prefab
Assets/Example/Scenes/SampleScene.unity
/Canvas/Text (1)
","6","Wise men say only fools rush in But I can't help falling in love with you Shall I stay? Would it be a sin If I can't help falling in love with you? Like a river flows surely to the sea Darling so it goes Some things are meant to be Take my hand, take my whole life too For I can't help falling in love with you Like a river flows surely to the sea Darling so it goes Some things are meant to be Take my hand, take my whole life too For I can't help falling in love with you For I can't help falling in love with you","","","",""
"Assets/Example/Prefab/TestObject.prefab
","7","Hello {0} how are you","","","",""
"Assets/Example/Scenes/SampleScene.unity
/TestObject
","8","Hello {0} how are you man","","","",""
"Assets/Example/Scenes/SampleScene.unity
/Canvas 2/Text
","9","hm let test , this, "" ok let check again""
ok it is working
hmm ""yep"" ok\, , ,","","","",""
"Assets/Example/Scenes/SampleScene.unity
/New Text
","10","trip to russia","","","",""
"Assets/Example/Scenes/SampleScene.unity
/Text (TMP)
","11","again testing ","","","",""
"Assets/Example/Scenes/t19.unity
/Canvas/Text
Assets/Example/Scenes/t19.unity
/New Text
","12","الك \n كيف تجري الامور","","","",""
"Assets/Example/Scenes/t19.unity
/Text (TMP)
","13","الك \n
كيف تجري الامور","","","",""
يف تجري الامور","","","",""
"Assets/Example/Scenes/t19.unity
/Text (TMP)
","14","الك \n
كيف تجري الامور","","","",""
re meant to be Take my hand, take my whole life too For I can't help falling in love with you For I can't help falling in love with you","Wise men say only fools rush in But I can't help falling in love with you Shall I stay? Would it be a sin If I can't help falling in love with you? Like a river flows surely to the sea Darling so it goes Some things are meant to be Take my hand, take my whole life too For I can't help falling in love with you Like a river flows surely to the sea Darling so it goes Some things are meant to be Take my hand, take my whole life too For I can't help falling in love with you For I can't help falling in love with you"
"•Assets/Example/Prefab/TestObject.prefab","6","Hello {0} how are you","","","Hello {0} how are you","","",""
"•Assets/Example/Scenes/SampleScene.unity
->/TestObject","7","Hello {0} how are you man","","","","","",""
"•Assets/Example/Scenes/SampleScene.unity
->/Canvas/Text","8","so let test it again","so let test it again","","","","",""
"•Assets/Example/Scenes/SampleScene.unity
->/New Text","9","trip to russia","trip to russia","","","","",""
"•Assets/Example/Scenes/SampleScene.unity
->/Text (TMP)","10","again testing ","again testing ","","","","",""
